
Filtering changed files on branch using the following paths:
============================================================

 * app/
 * fruits/*/tests


Running command:

php vendor/bin/phpcs app/ fruits/*/tests -p


PHP Code Sniffer checks failed!
